%YAML 1.1
%TAG !u! tag:unity3d.com,2011:
--- !u!114 &11400000
MonoBehaviour:
  m_ObjectHideFlags: 0
  m_CorrespondingSourceObject: {fileID: 0}
  m_PrefabInstance: {fileID: 0}
  m_PrefabAsset: {fileID: 0}
  m_GameObject: {fileID: 0}
  m_Enabled: 1
  m_EditorHideFlags: 0
  m_Script: {fileID: 11500000, guid: d5d69de6f7080cf47bf0ab5593d9f3c4, type: 3}
  m_Name: StayTogether
  m_EditorClassIdentifier: 
  albedoTransparencyMap: {fileID: 2800000, guid: d3671746aa152ed4998e192dd3b8b162,
    type: 3}
  emissionMap: {fileID: 2800000, guid: d3671746aa152ed4998e192dd3b8b162, type: 3}
